<?xml version="1.0" encoding="UTF-8"?>
<svg version="1.1" xmlns="http://www.w3.org/2000/svg" xmlns:xlink="http://www.w3.org/1999/xlink" width="70" height="100"  xml:space="preserve" id="magicmouse">
    <rect id="magicmouse-body" stroke="rgb(0, 0, 0)" stroke-width="1" stroke-miterlimit="10" fill="none" x="10" y="10" width="50" height="80" rx="20" />
    <path id="magicmouse-swipe_y" stroke="rgb(1, 214, 214)" stroke-width="6.5" stroke-linecap="round" stroke-miterlimit="10" fill="none" d="M 35,15 C 35,41.5 35,41.5 35,41.5" />
</svg>
